module gitlab.com/ajnasz/kclient

go 1.14

require (
	github.com/graph-gophers/graphql-go v0.0.0-20200309224638-dae41bde9ef9
	github.com/imdario/mergo v0.3.9 // indirect
	github.com/rs/cors v1.7.0
	golang.org/x/oauth2 v0.0.0-20200107190931-bf48bf16ab8d // indirect
	golang.org/x/time v0.0.0-20200416051211-89c76fbcd5d1 // indirect
	k8s.io/api v0.18.3
	k8s.io/apimachinery v0.18.3
	k8s.io/client-go v0.18.3
	k8s.io/utils v0.0.0-20200603063816-c1c6865ac451 // indirect
)
